module gitlab.com/johnstonetech0/sso

go 1.19

require (
	github.com/aws/aws-sdk-go-v2 v1.17.3
	github.com/aws/aws-sdk-go-v2/config v1.18.7
	github.com/aws/aws-sdk-go-v2/service/sso v1.11.28
	github.com/aws/aws-sdk-go-v2/service/ssooidc v1.13.11
	github.com/aws/aws-sdk-go-v2/service/sts v1.17.7
	github.com/pkg/browser v0.0.0-20210911075715-681adbf594b8
)

require (
	github.com/aws/aws-sdk-go-v2/credentials v1.13.7 // indirect
	github.com/aws/aws-sdk-go-v2/feature/ec2/imds v1.12.21 // indirect
	github.com/aws/aws-sdk-go-v2/internal/configsources v1.1.27 // indirect
	github.com/aws/aws-sdk-go-v2/internal/endpoints/v2 v2.4.21 // indirect
	github.com/aws/aws-sdk-go-v2/internal/ini v1.3.28 // indirect
	github.com/aws/aws-sdk-go-v2/service/internal/presigned-url v1.9.21 // indirect
	github.com/aws/smithy-go v1.13.5 // indirect
	golang.org/x/sys v0.8.0 // indirect
)
